module github.com/cloudquery/cloudquery

go 1.14

require (
	github.com/Azure/azure-sdk-for-go v49.0.0+incompatible
	github.com/Azure/go-autorest/autorest v0.11.13
	github.com/Azure/go-autorest/autorest/azure/auth v0.5.5
	github.com/Azure/go-autorest/autorest/date v0.3.0
	github.com/Azure/go-autorest/autorest/to v0.4.0 // indirect
	github.com/Azure/go-autorest/autorest/validation v0.3.1 // indirect
	github.com/aws/aws-sdk-go v1.35.0
	github.com/gocarina/gocsv v0.0.0-20201208093247-67c824bc04d4
	github.com/mitchellh/mapstructure v1.3.3
	github.com/okta/okta-sdk-golang/v2 v2.2.1
	github.com/olekukonko/tablewriter v0.0.4
	github.com/satori/go.uuid v1.2.0
	github.com/shopspring/decimal v1.2.0 // indirect
	github.com/spf13/cobra v1.1.0
	go.uber.org/zap v1.10.0
	golang.org/x/tools v0.0.0-20201014231627-1610a49f37af // indirect
	google.golang.org/api v0.35.0
	gopkg.in/yaml.v3 v3.0.0-20200615113413-eeeca48fe776
	gorm.io/driver/mysql v1.0.2
	gorm.io/driver/postgres v1.0.2
	gorm.io/driver/sqlite v1.1.3
	gorm.io/driver/sqlserver v1.0.4
	gorm.io/gorm v1.20.9
	k8s.io/api v0.19.0
	k8s.io/apimachinery v0.19.0
	k8s.io/client-go v0.19.0
)
